{"consumer":{"name":"ui-person-consumer"},"provider":{"name":"api-person-provider"},"interactions":[{"description":"passes","providerState":"","request":{"method":"GET","path":"/api/person","headers":{"content-type":"application/json","authorization":"Bearer eyJ0eXAiOiJKV1QiLCJhbGciOiJIUzI1NiJ9.eyJzdWIiOiJsZWFuZHJvIiwicm9sZXMiOlsiQURNSU4iLCJNQU5BR0VSIl0sImlzcyI6Imh0dHA6Ly9sb2NhbGhvc3Q6ODA4MiIsImV4cCI6MTczMDQ5ODg5OSwiaWF0IjoxNzMwNDk1Mjk5fQ.AChwhmov9I47n80JqmVoIDLuIgICh7_HVfIv7N3LYfU","accept":"*/*"},"body":"","query":""},"response":{"status":200,"headers":{"content-type":"application/json","access-control-allow-origin":"http://localhost:3000"},"body":{"_embedded":{"personVOList":[{"id":511,"firstName":"Caíque","lastName":"Coelho","address":"238 Waubesa Lane","gender":"Male","enabled":true,"_links":{"self":{"href":"http://localhost:8082/api/person/511"}}},{"id":915,"firstName":"Abba","lastName":"Benger","address":"61 Kropf Junction","gender":"Male","enabled":false,"_links":{"self":{"href":"http://localhost:8082/api/person/915"}}},{"id":649,"firstName":"Abra","lastName":"Thiem","address":"8451 Morning Point","gender":"Female","enabled":false,"_links":{"self":{"href":"http://localhost:8082/api/person/649"}}},{"id":336,"firstName":"Addia","lastName":"Kytter","address":"9 Gale Parkway","gender":"Female","enabled":false,"_links":{"self":{"href":"http://localhost:8082/api/person/336"}}},{"id":902,"firstName":"Addie","lastName":"McIntosh","address":"44 Ludington Trail","gender":"Male","enabled":true,"_links":{"self":{"href":"http://localhost:8082/api/person/902"}}},{"id":769,"firstName":"Ade","lastName":"Shilleto","address":"004 Pennsylvania Crossing","gender":"Male","enabled":false,"_links":{"self":{"href":"http://localhost:8082/api/person/769"}}},{"id":839,"firstName":"Adelaida","lastName":"Laidler","address":"650 Melvin Place","gender":"Female","enabled":false,"_links":{"self":{"href":"http://localhost:8082/api/person/839"}}},{"id":337,"firstName":"Adelina","lastName":"Botton","address":"1050 Mcbride Drive","gender":"Female","enabled":true,"_links":{"self":{"href":"http://localhost:8082/api/person/337"}}},{"id":291,"firstName":"Adler","lastName":"Palombi","address":"243 Warrior Circle","gender":"Male","enabled":false,"_links":{"self":{"href":"http://localhost:8082/api/person/291"}}},{"id":693,"firstName":"Adolphe","lastName":"Kovelmann","address":"2413 6th Court","gender":"Male","enabled":false,"_links":{"self":{"href":"http://localhost:8082/api/person/693"}}},{"id":216,"firstName":"Adolphe","lastName":"Nurdin","address":"8 Bunker Hill Terrace","gender":"Male","enabled":false,"_links":{"self":{"href":"http://localhost:8082/api/person/216"}}},{"id":429,"firstName":"Aeriel","lastName":"Colerick","address":"412 Sunbrook Pass","gender":"Female","enabled":true,"_links":{"self":{"href":"http://localhost:8082/api/person/429"}}}]},"_links":{"first":{"href":"http://localhost:8082/api/person?sortDirection=asc&page=0&size=12&sort=firstName,asc"},"self":{"href":"http://localhost:8082/api/person?page=0&size=12&sortDirection=asc"},"next":{"href":"http://localhost:8082/api/person?sortDirection=asc&page=1&size=12&sort=firstName,asc"},"last":{"href":"http://localhost:8082/api/person?sortDirection=asc&page=84&size=12&sort=firstName,asc"}},"page":{"size":12,"totalElements":1012,"totalPages":85,"number":0}}}}],"metadata":{"pactSpecification":{"version":"2.0.0"},"client":{"name":"pact-cypress-adapter","version":"1.3.0"}}}